Main/dump.vcd
$date
	Fri Feb 14 15:37:11 2025
$end
$version
	Icarus Verilog
$end
$timescale
	1ps
$end
$scope module testbench $end
$scope module uut $end
$var wire 1 ! clk $end
$var wire 1 " reset $end
$var wire 1 # zero $end
$var wire 32 $ SumOut [31:0] $end
$var wire 1 % Select $end
$var wire 1 & RegWrite $end
$var wire 32 ' ReadData2Out [31:0] $end
$var wire 32 ( ReadData1Out [31:0] $end
$var wire 32 ) PC_out [31:0] $end
$var wire 32 * PCPlus4 [31:0] $end
$var wire 32 + Mux3Out [31:0] $end
$var wire 32 , Mux2Out [31:0] $end
$var wire 32 - Mux1Out [31:0] $end
$var wire 1 . MemtoReg $end
$var wire 1 / MemWrite $end
$var wire 1 0 MemRead $end
$var wire 32 1 InstructionOut [31:0] $end
$var wire 32 2 ImmediateOut [31:0] $end
$var wire 32 3 DM_read [31:0] $end
$var wire 4 4 Control_out [3:0] $end
$var wire 1 5 Branch $end
$var wire 1 6 ALUSrc $end
$var wire 32 7 ALUResult [31:0] $end
$var wire 2 8 ALUOp [1:0] $end
$scope module AC $end
$var wire 1 ! clk $end
$var wire 3 9 i_Func3 [2:0] $end
$var wire 1 : i_Func7 $end
$var wire 1 ; reset $end
$var wire 2 < i_ALUOp [1:0] $end
$var reg 4 = o_Operation [3:0] $end
$upscope $end
$scope module ALU2 $end
$var wire 4 > i_Operation [3:0] $end
$var wire 32 ? B [31:0] $end
$var wire 32 @ A [31:0] $end
$var reg 32 A o_ALU_Result [31:0] $end
$var reg 1 # o_Zero $end
$upscope $end
$scope module AND $end
$var wire 1 # B $end
$var wire 1 % o_Y $end
$var wire 1 5 A $end
$upscope $end
$scope module Add $end
$var wire 32 B Sum [31:0] $end
$var wire 32 C PC_in [31:0] $end
$var wire 32 D Imm_in [31:0] $end
$upscope $end
$scope module Control $end
$var wire 7 E i_Instruction [6:0] $end
$var reg 2 F o_ALUOp [1:0] $end
$var reg 1 6 o_ALUSrc $end
$var reg 1 5 o_Branch $end
$var reg 1 0 o_MemRead $end
$var reg 1 / o_MemWrite $end
$var reg 1 . o_MemtoReg $end
$var reg 1 & o_RegWrite $end
$upscope $end
$scope module DM $end
$var wire 1 ! clk $end
$var wire 5 G i_Address [4:0] $end
$var wire 1 0 i_MemRead $end
$var wire 1 / i_MemWrite $end
$var wire 32 H i_WriteData [31:0] $end
$var reg 32 I o_ReadData [31:0] $end
$upscope $end
$scope module IM $end
$var wire 1 ! clk $end
$var wire 1 " reset $end
$var wire 32 J PC_in [31:0] $end
$var reg 32 K Instruction_out [31:0] $end
$upscope $end
$scope module ImmGen $end
$var wire 1 ! clk $end
$var wire 32 L i_Instruction [31:0] $end
$var reg 32 M o_Immediate [31:0] $end
$upscope $end
$scope module Mux1 $end
$var wire 32 N B [31:0] $end
$var wire 1 % sel $end
$var wire 32 O Y [31:0] $end
$var wire 32 P A [31:0] $end
$upscope $end
$scope module Mux2 $end
$var wire 32 Q B [31:0] $end
$var wire 1 6 sel $end
$var wire 32 R Y [31:0] $end
$var wire 32 S A [31:0] $end
$upscope $end
$scope module Mux3 $end
$var wire 32 T A [31:0] $end
$var wire 32 U B [31:0] $end
$var wire 1 . sel $end
$var wire 32 V Y [31:0] $end
$upscope $end
$scope module PC $end
$var wire 32 W PC_in [31:0] $end
$var wire 1 ! clk $end
$var wire 1 " reset $end
$var reg 32 X PC_out [31:0] $end
$upscope $end
$scope module PC4 $end
$var wire 32 Y PC_in [31:0] $end
$var wire 32 Z PC_out [31:0] $end
$upscope $end
$scope module Reg $end
$var wire 1 ! clk $end
$var wire 5 [ i_RD1 [4:0] $end
$var wire 5 \ i_RS1 [4:0] $end
$var wire 5 ] i_RS2 [4:0] $end
$var wire 1 & i_RegWrite $end
$var wire 32 ^ i_WriteData [31:0] $end
$var wire 1 " reset $end
$var reg 32 _ o_ReadData1 [31:0] $end
$var reg 32 ` o_ReadData2 [31:0] $end
$var integer 32 a k [31:0] $end
$upscope $end
$upscope $end
$upscope $end
$enddefinitions $end
#0
$dumpvars
b100000 a
bx `
bx _
bx ^
b0 ]
b0 \
b0 [
b100 Z
b0 Y
b0 X
b100 W
bx V
b0 U
bx T
bx S
bx R
b0 Q
b100 P
b100 O
b0 N
b0 M
b0 L
b0 K
b0 J
b0 I
bx H
bx G
b0 F
b0 E
b0 D
b0 C
b0 B
bx A
bx @
bx ?
b10 >
b10 =
b0 <
z;
0:
b0 9
b0 8
bx 7
06
05
b10 4
b0 3
b0 2
b0 1
00
0/
0.
b100 -
bx ,
bx +
b100 *
b0 )
bx (
bx '
0&
0%
b0 $
x#
1"
0!
$end
#5000
0#
b1 +
b1 V
b1 ^
b1 G
b1 7
b1 A
b1 T
b0 ,
b0 ?
b0 R
b0 '
b0 H
b0 S
b0 `
b0 (
b0 @
b0 _
b100000 a
1!
#10000
0!
0"
#15000
1&
b10 8
b10 <
b10 F
b1000 -
b1000 O
b1000 W
b11 [
b10 ]
b110011 E
b1000 *
b1000 P
b1000 Z
b100 $
b100 B
b100 N
b100 )
b100 C
b100 J
b100 X
b100 Y
b1000000000000110110011 1
b1000000000000110110011 K
b1000000000000110110011 L
1!
#20000
0!
#25000
b101 [
b11 ]
b100 \
b1100 -
b1100 O
b1100 W
b1100100000001010110011 1
b1100100000001010110011 K
b1100100000001010110011 L
b1100 *
b1100 P
b1100 Z
b1000 $
b1000 B
b1000 N
b1000 )
b1000 C
b1000 J
b1000 X
b1000 Y
1!
#30000
0!
#35000
0&
b0 8
b0 <
b0 F
b10000 -
b10000 O
b10000 W
bx 9
x:
bx [
bx ]
bx \
bx E
b1 ,
b1 ?
b1 R
b10000 *
b10000 P
b10000 Z
b1100 $
b1100 B
b1100 N
b1100 )
b1100 C
b1100 J
b1100 X
b1100 Y
bx 1
bx K
bx L
b1 '
b1 H
b1 S
b1 `
1!
#40000
0!
#45000
x#
bx +
bx V
bx ^
bx G
bx 7
bx A
bx T
bx ,
bx ?
bx R
b10100 -
b10100 O
b10100 W
bx '
bx H
bx S
bx `
bx (
bx @
bx _
b10100 *
b10100 P
b10100 Z
b10000 $
b10000 B
b10000 N
b10000 )
b10000 C
b10000 J
b10000 X
b10000 Y
1!
#50000
0!
#55000
b11000 -
b11000 O
b11000 W
b11000 *
b11000 P
b11000 Z
b10100 $
b10100 B
b10100 N
b10100 )
b10100 C
b10100 J
b10100 X
b10100 Y
1!
#60000
0!
#65000
b11100 -
b11100 O
b11100 W
b11100 *
b11100 P
b11100 Z
b11000 $
b11000 B
b11000 N
b11000 )
b11000 C
b11000 J
b11000 X
b11000 Y
1!
#70000
0!
#75000
b100000 -
b100000 O
b100000 W
b100000 *
b100000 P
b100000 Z
b11100 $
b11100 B
b11100 N
b11100 )
b11100 C
b11100 J
b11100 X
b11100 Y
1!
#80000
0!
#85000
b100100 -
b100100 O
b100100 W
b100100 *
b100100 P
b100100 Z
b100000 $
b100000 B
b100000 N
b100000 )
b100000 C
b100000 J
b100000 X
b100000 Y
1!
#90000
0!
#95000
b101000 -
b101000 O
b101000 W
b101000 *
b101000 P
b101000 Z
b100100 $
b100100 B
b100100 N
b100100 )
b100100 C
b100100 J
b100100 X
b100100 Y
1!
#100000
0!
#105000
b101100 -
b101100 O
b101100 W
b101100 *
b101100 P
b101100 Z
b101000 $
b101000 B
b101000 N
b101000 )
b101000 C
b101000 J
b101000 X
b101000 Y
1!
#110000
0!
#115000
b110000 -
b110000 O
b110000 W
b110000 *
b110000 P
b110000 Z
b101100 $
b101100 B
b101100 N
b101100 )
b101100 C
b101100 J
b101100 X
b101100 Y
1!
#120000
0!
#125000
b110100 -
b110100 O
b110100 W
b110100 *
b110100 P
b110100 Z
b110000 $
b110000 B
b110000 N
b110000 )
b110000 C
b110000 J
b110000 X
b110000 Y
1!
#130000
0!
#135000
b111000 -
b111000 O
b111000 W
b111000 *
b111000 P
b111000 Z
b110100 $
b110100 B
b110100 N
b110100 )
b110100 C
b110100 J
b110100 X
b110100 Y
1!
#140000
0!
#145000
b111100 -
b111100 O
b111100 W
b111100 *
b111100 P
b111100 Z
b111000 $
b111000 B
b111000 N
b111000 )
b111000 C
b111000 J
b111000 X
b111000 Y
1!
#150000
0!
#155000
b1000000 -
b1000000 O
b1000000 W
b1000000 *
b1000000 P
b1000000 Z
b111100 $
b111100 B
b111100 N
b111100 )
b111100 C
b111100 J
b111100 X
b111100 Y
1!
#160000
0!
#165000
b1000100 -
b1000100 O
b1000100 W
b1000100 *
b1000100 P
b1000100 Z
b1000000 $
b1000000 B
b1000000 N
b1000000 )
b1000000 C
b1000000 J
b1000000 X
b1000000 Y
1!
#170000
0!
#175000
b1001000 -
b1001000 O
b1001000 W
b1001000 *
b1001000 P
b1001000 Z
b1000100 $
b1000100 B
b1000100 N
b1000100 )
b1000100 C
b1000100 J
b1000100 X
b1000100 Y
1!
#180000
0!
#185000
b1001100 -
b1001100 O
b1001100 W
b1001100 *
b1001100 P
b1001100 Z
b1001000 $
b1001000 B
b1001000 N
b1001000 )
b1001000 C
b1001000 J
b1001000 X
b1001000 Y
1!
#190000
0!
#195000
b1010000 -
b1010000 O
b1010000 W
b1010000 *
b1010000 P
b1010000 Z
b1001100 $
b1001100 B
b1001100 N
b1001100 )
b1001100 C
b1001100 J
b1001100 X
b1001100 Y
1!
#200000
0!
#205000
b1010100 -
b1010100 O
b1010100 W
b1010100 *
b1010100 P
b1010100 Z
b1010000 $
b1010000 B
b1010000 N
b1010000 )
b1010000 C
b1010000 J
b1010000 X
b1010000 Y
1!
#210000
0!
#215000
b1011000 -
b1011000 O
b1011000 W
b1011000 *
b1011000 P
b1011000 Z
b1010100 $
b1010100 B
b1010100 N
b1010100 )
b1010100 C
b1010100 J
b1010100 X
b1010100 Y
1!
#220000
0!
#225000
b1011100 -
b1011100 O
b1011100 W
b1011100 *
b1011100 P
b1011100 Z
b1011000 $
b1011000 B
b1011000 N
b1011000 )
b1011000 C
b1011000 J
b1011000 X
b1011000 Y
1!
#230000
0!
#235000
b1100000 -
b1100000 O
b1100000 W
b1100000 *
b1100000 P
b1100000 Z
b1011100 $
b1011100 B
b1011100 N
b1011100 )
b1011100 C
b1011100 J
b1011100 X
b1011100 Y
1!
#240000
0!
#245000
b1100100 -
b1100100 O
b1100100 W
b1100100 *
b1100100 P
b1100100 Z
b1100000 $
b1100000 B
b1100000 N
b1100000 )
b1100000 C
b1100000 J
b1100000 X
b1100000 Y
1!
#250000
0!
#255000
b1101000 -
b1101000 O
b1101000 W
b1101000 *
b1101000 P
b1101000 Z
b1100100 $
b1100100 B
b1100100 N
b1100100 )
b1100100 C
b1100100 J
b1100100 X
b1100100 Y
1!
#260000
0!
#265000
b1101100 -
b1101100 O
b1101100 W
b1101100 *
b1101100 P
b1101100 Z
b1101000 $
b1101000 B
b1101000 N
b1101000 )
b1101000 C
b1101000 J
b1101000 X
b1101000 Y
1!
#270000
0!
#275000
b1110000 -
b1110000 O
b1110000 W
b1110000 *
b1110000 P
b1110000 Z
b1101100 $
b1101100 B
b1101100 N
b1101100 )
b1101100 C
b1101100 J
b1101100 X
b1101100 Y
1!
#280000
0!
#285000
b1110100 -
b1110100 O
b1110100 W
b1110100 *
b1110100 P
b1110100 Z
b1110000 $
b1110000 B
b1110000 N
b1110000 )
b1110000 C
b1110000 J
b1110000 X
b1110000 Y
1!
#290000
0!
#295000
b1111000 -
b1111000 O
b1111000 W
b1111000 *
b1111000 P
b1111000 Z
b1110100 $
b1110100 B
b1110100 N
b1110100 )
b1110100 C
b1110100 J
b1110100 X
b1110100 Y
1!
#300000
0!
#305000
b1111100 -
b1111100 O
b1111100 W
b1111100 *
b1111100 P
b1111100 Z
b1111000 $
b1111000 B
b1111000 N
b1111000 )
b1111000 C
b1111000 J
b1111000 X
b1111000 Y
1!
#310000
0!
#315000
b10000000 -
b10000000 O
b10000000 W
b10000000 *
b10000000 P
b10000000 Z
b1111100 $
b1111100 B
b1111100 N
b1111100 )
b1111100 C
b1111100 J
b1111100 X
b1111100 Y
1!
#320000
0!
#325000
b10000100 -
b10000100 O
b10000100 W
b10000100 *
b10000100 P
b10000100 Z
b10000000 $
b10000000 B
b10000000 N
b10000000 )
b10000000 C
b10000000 J
b10000000 X
b10000000 Y
1!
#330000
0!
#335000
1&
b10 8
b10 <
b10 F
b10001000 -
b10001000 O
b10001000 W
b0 9
0:
b11 [
b10 ]
b0 \
b110011 E
b10001000 *
b10001000 P
b10001000 Z
b10000100 $
b10000100 B
b10000100 N
b10000100 )
b10000100 C
b10000100 J
b10000100 X
b10000100 Y
b1000000000000110110011 1
b1000000000000110110011 K
b1000000000000110110011 L
1!
#340000
0!
#345000
0#
b1 +
b1 V
b1 ^
b1 G
b1 7
b1 A
b1 T
b0 ,
b0 ?
b0 R
b101 [
b11 ]
b100 \
b10001100 -
b10001100 O
b10001100 W
b0 '
b0 H
b0 S
b0 `
b0 (
b0 @
b0 _
b1100100000001010110011 1
b1100100000001010110011 K
b1100100000001010110011 L
b10001100 *
b10001100 P
b10001100 Z
b10001000 $
b10001000 B
b10001000 N
b10001000 )
b10001000 C
b10001000 J
b10001000 X
b10001000 Y
1!
#350000
0!
#355000
0&
b0 8
b0 <
b0 F
b10010000 -
b10010000 O
b10010000 W
bx 9
x:
bx [
bx ]
bx \
bx E
bx ,
bx ?
bx R
b10010000 *
b10010000 P
b10010000 Z
b10001100 $
b10001100 B
b10001100 N
b10001100 )
b10001100 C
b10001100 J
b10001100 X
b10001100 Y
bx 1
bx K
bx L
bx '
bx H
bx S
bx `
1!
#360000
0!
#365000
x#
bx +
bx V
bx ^
bx G
bx 7
bx A
bx T
b10010100 -
b10010100 O
b10010100 W
bx (
bx @
bx _
b10010100 *
b10010100 P
b10010100 Z
b10010000 $
b10010000 B
b10010000 N
b10010000 )
b10010000 C
b10010000 J
b10010000 X
b10010000 Y
1!
#370000
0!
#375000
b10011000 -
b10011000 O
b10011000 W
b10011000 *
b10011000 P
b10011000 Z
b10010100 $
b10010100 B
b10010100 N
b10010100 )
b10010100 C
b10010100 J
b10010100 X
b10010100 Y
1!
#380000
0!
#385000
b10011100 -
b10011100 O
b10011100 W
b10011100 *
b10011100 P
b10011100 Z
b10011000 $
b10011000 B
b10011000 N
b10011000 )
b10011000 C
b10011000 J
b10011000 X
b10011000 Y
1!
#390000
0!
#395000
b10100000 -
b10100000 O
b10100000 W
b10100000 *
b10100000 P
b10100000 Z
b10011100 $
b10011100 B
b10011100 N
b10011100 )
b10011100 C
b10011100 J
b10011100 X
b10011100 Y
1!
#400000
0!
#405000
b10100100 -
b10100100 O
b10100100 W
b10100100 *
b10100100 P
b10100100 Z
b10100000 $
b10100000 B
b10100000 N
b10100000 )
b10100000 C
b10100000 J
b10100000 X
b10100000 Y
1!
#410000
0!
#415000
b10101000 -
b10101000 O
b10101000 W
b10101000 *
b10101000 P
b10101000 Z
b10100100 $
b10100100 B
b10100100 N
b10100100 )
b10100100 C
b10100100 J
b10100100 X
b10100100 Y
1!
#420000
0!
#425000
b10101100 -
b10101100 O
b10101100 W
b10101100 *
b10101100 P
b10101100 Z
b10101000 $
b10101000 B
b10101000 N
b10101000 )
b10101000 C
b10101000 J
b10101000 X
b10101000 Y
1!
#430000
0!
#435000
b10110000 -
b10110000 O
b10110000 W
b10110000 *
b10110000 P
b10110000 Z
b10101100 $
b10101100 B
b10101100 N
b10101100 )
b10101100 C
b10101100 J
b10101100 X
b10101100 Y
1!
#440000
0!
#445000
b10110100 -
b10110100 O
b10110100 W
b10110100 *
b10110100 P
b10110100 Z
b10110000 $
b10110000 B
b10110000 N
b10110000 )
b10110000 C
b10110000 J
b10110000 X
b10110000 Y
1!
#450000
0!
#455000
b10111000 -
b10111000 O
b10111000 W
b10111000 *
b10111000 P
b10111000 Z
b10110100 $
b10110100 B
b10110100 N
b10110100 )
b10110100 C
b10110100 J
b10110100 X
b10110100 Y
1!
#460000
0!
#465000
b10111100 -
b10111100 O
b10111100 W
b10111100 *
b10111100 P
b10111100 Z
b10111000 $
b10111000 B
b10111000 N
b10111000 )
b10111000 C
b10111000 J
b10111000 X
b10111000 Y
1!
#470000
0!
#475000
b11000000 -
b11000000 O
b11000000 W
b11000000 *
b11000000 P
b11000000 Z
b10111100 $
b10111100 B
b10111100 N
b10111100 )
b10111100 C
b10111100 J
b10111100 X
b10111100 Y
1!
#480000
0!
#485000
b11000100 -
b11000100 O
b11000100 W
b11000100 *
b11000100 P
b11000100 Z
b11000000 $
b11000000 B
b11000000 N
b11000000 )
b11000000 C
b11000000 J
b11000000 X
b11000000 Y
1!
#490000
0!
#495000
b11001000 -
b11001000 O
b11001000 W
b11001000 *
b11001000 P
b11001000 Z
b11000100 $
b11000100 B
b11000100 N
b11000100 )
b11000100 C
b11000100 J
b11000100 X
b11000100 Y
1!
#500000
0!
#505000
b11001100 -
b11001100 O
b11001100 W
b11001100 *
b11001100 P
b11001100 Z
b11001000 $
b11001000 B
b11001000 N
b11001000 )
b11001000 C
b11001000 J
b11001000 X
b11001000 Y
1!
